{
  "formatVersion": 1,
  "database": {
    "version": 1,
    "identityHash": "12d01c812e8ef8173bcf9d273db13e53",
    "entities": [
      {
        "tableName": "usageStats",
        "createSql": "CREATE TABLE IF NOT EXISTS `${TABLE_NAME}` (`timeUsed` INTEGER NOT NULL, `applicationId` TEXT NOT NULL, `year` INTEGER NOT NULL, `month` INTEGER NOT NULL, `day` INTEGER NOT NULL, PRIMARY KEY(`day`, `applicationId`))",
        "fields": [
          {
            "fieldPath": "timeUsed",
            "columnName": "timeUsed",
            "affinity": "INTEGER",
            "notNull": true
          },
          {
            "fieldPath": "applicationId",
            "columnName": "applicationId",
            "affinity": "TEXT",
            "notNull": true
          },
          {
            "fieldPath": "day.year",
            "columnName": "year",
            "affinity": "INTEGER",
            "notNull": true
          },
          {
            "fieldPath": "day.month",
            "columnName": "month",
            "affinity": "INTEGER",
            "notNull": true
          },
          {
            "fieldPath": "day.day",
            "columnName": "day",
            "affinity": "INTEGER",
            "notNull": true
          }
        ],
        "primaryKey": {
          "columnNames": [
            "day",
            "applicationId"
          ],
          "autoGenerate": false
        },
        "indices": [],
        "foreignKeys": []
      }
    ],
    "views": [],
    "setupQueries": [
      "CREATE TABLE IF NOT EXISTS room_master_table (id INTEGER PRIMARY KEY,identity_hash TEXT)",
      "INSERT OR REPLACE INTO room_master_table (id,identity_hash) VALUES(42, '12d01c812e8ef8173bcf9d273db13e53')"
    ]
  }
}