{
  "formatVersion": 1,
  "database": {
    "version": 4,
    "identityHash": "01c5d7fd6049c97fe7b7caba9ba1261d",
    "entities": [
      {
        "tableName": "usageStats",
        "createSql": "CREATE TABLE IF NOT EXISTS `${TABLE_NAME}` (`day` INTEGER NOT NULL, `timeUsed` INTEGER NOT NULL, `applicationId` TEXT NOT NULL, `hidden` INTEGER NOT NULL, PRIMARY KEY(`day`, `applicationId`))",
        "fields": [
          {
            "fieldPath": "day",
            "columnName": "day",
            "affinity": "INTEGER",
            "notNull": true
          },
          {
            "fieldPath": "timeUsed",
            "columnName": "timeUsed",
            "affinity": "INTEGER",
            "notNull": true
          },
          {
            "fieldPath": "applicationId",
            "columnName": "applicationId",
            "affinity": "TEXT",
            "notNull": true
          },
          {
            "fieldPath": "hidden",
            "columnName": "hidden",
            "affinity": "INTEGER",
            "notNull": true
          }
        ],
        "primaryKey": {
          "columnNames": [
            "day",
            "applicationId"
          ],
          "autoGenerate": false
        },
        "indices": [],
        "foreignKeys": []
      },
      {
        "tableName": "lastUsed",
        "createSql": "CREATE TABLE IF NOT EXISTS `${TABLE_NAME}` (`applicationId` TEXT NOT NULL, `lastUsed` INTEGER NOT NULL, PRIMARY KEY(`applicationId`))",
        "fields": [
          {
            "fieldPath": "applicationId",
            "columnName": "applicationId",
            "affinity": "TEXT",
            "notNull": true
          },
          {
            "fieldPath": "lastUsed",
            "columnName": "lastUsed",
            "affinity": "INTEGER",
            "notNull": true
          }
        ],
        "primaryKey": {
          "columnNames": [
            "applicationId"
          ],
          "autoGenerate": false
        },
        "indices": [],
        "foreignKeys": []
      }
    ],
    "views": [],
    "setupQueries": [
      "CREATE TABLE IF NOT EXISTS room_master_table (id INTEGER PRIMARY KEY,identity_hash TEXT)",
      "INSERT OR REPLACE INTO room_master_table (id,identity_hash) VALUES(42, '01c5d7fd6049c97fe7b7caba9ba1261d')"
    ]
  }
}